{
  "developmentRegion" : "en",
  "targetLocale" : "es-US",
  "toolInfo" : {
    "toolBuildNumber" : "12B45b",
    "toolID" : "com.apple.dt.xcode",
    "toolName" : "Xcode",
    "toolVersion" : "12.2"
  },
  "version" : "1.0"
}